…
animal_rescue %>% 
  group_by(animal_group_parent) %>% 
  
  #group_by and summarise will produce a new column with the count in each animal group
  summarise(count = n()) %>% 
  
  # mutate adds a new column; here we calculate the percentage
  mutate(percent = round(100*count/sum(count),2)) %>% 
  
  # arrange() sorts the data by percent. Since the default sorting is min to max and we would like to see it sorted
  # in descending order (max to min), we use arrange(desc()) 
  arrange(desc(percent))

## # A tibble: 28 × 3
##    animal_group_parent              count percent
##    <chr>                            <int>   <dbl>
##  1 Cat                               4232   48.4 
##  2 Bird                              1803   20.6 
##  3 Dog                               1341   15.3 
##  4 Fox                                455    5.2 
##  5 Unknown - Domestic Animal Or Pet   215    2.46
##  6 Horse                              201    2.3 
##  7 Deer                               152    1.74
##  8 Unknown - Wild Animal              102    1.17
##  9 Squirrel                            75    0.86
## 10 Unknown - Heavy Livestock Animal    50    0.57
## # … with 18 more rows

animal_rescue %>% 
  
  #count does the same thing as group_by and summarise
  # name = "count" will call the column with the counts "count" ( exciting, I know)
  # and 'sort=TRUE' will sort them from max to min
  count(animal_group_parent, name="count", sort=TRUE) %>% 
  mutate(percent = round(100*count/sum(count),2))

## # A tibble: 28 × 3
##    animal_group_parent              count percent
##    <chr>                            <int>   <dbl>
##  1 Cat                               4232   48.4 
##  2 Bird                              1803   20.6 
##  3 Dog                               1341   15.3 
##  4 Fox                                455    5.2 
##  5 Unknown - Domestic Animal Or Pet   215    2.46
##  6 Horse                              201    2.3 
##  7 Deer                               152    1.74
##  8 Unknown - Wild Animal              102    1.17
##  9 Squirrel                            75    0.86
## 10 Unknown - Heavy Livestock Animal    50    0.57
## # … with 18 more rows
…
